Dichotomize variables — dicho • sjmisc
…
# dichtomize several variables in a data frame
dicho(efc, c12hour, e17age, c160age, append = FALSE)
#> # A tibble: 908 x 3
#>    c12hour_d e17age_d c160age_d
#>    <fct>     <fct>    <fct>    
#>  1 0         1        1        
#>  2 1         1        0        
#>  3 1         1        1        
#>  4 1         0        1        
#>  5 1         1        0        
#>  6 0         1        1        
#>  7 1         0        1        
#>  8 1         1        1        
#>  9 1         0        1        
#> 10 1         1        0        
#> # ... with 898 more rows
…
median(mtcars$disp)
#> [1] 196.3

# dichotomize only variables with more than 10 unique values
p <- function(x) dplyr::n_distinct(x) > 10
dicho_if(efc, predicate = p, append = FALSE)
#> # A tibble: 908 x 7
#>    c12hour_d e17age_d c160age_d barthtot_d neg_c_7_d pos_v_4_d quol_5_d
#>    <fct>     <fct>    <fct>     <fct>      <fct>     <fct>     <fct>   
#>  1 0         1        1         1          1         0         0       
#>  2 1         1        0         1          1         0         0       
#>  3 1         1        1         0          0         0         0       
#>  4 1         0        1         0          0         1         0       
#>  5 1         1        0         0          1         1         1       
#>  6 0         1        1         0          1         0         0       
#>  7 1         0        1         0          1         0         1       
#>  8 1         1        1         0          0         1         1       
#>  9 1         0        1         0          1         0         0       
#> 10 1         1        0         0          0         0         0       
#> # ... with 898 more rows
…
