Find variable by name or label — find_var • sjmisc
…
# return tibble with matching variables
find_var(efc, "cop", out = "df")
#> # A tibble: 908 x 9
#>    c82cop1 c83cop2 c84cop3 c85cop4 c86cop5 c87cop6 c88cop7 c89cop8 c90cop9
#>      <dbl>   <dbl>   <dbl>   <dbl>   <dbl>   <dbl>   <dbl>   <dbl>   <dbl>
#>  1       3       2       2       2       1       1       2       3       3
#>  2       3       3       3       3       4       1       3       2       2
#>  3       2       2       1       4       1       1       1       4       3
#>  4       4       1       3       1       1       1       1       2       4
#>  5       3       2       1       2       2       2       1       4       4
#>  6       2       2       3       3       3       2       2       1       1
#>  7       4       2       4       1       1       2       4       1       4
#>  8       3       2       2       1       1       1       2       3       3
#>  9       3       2       3       2       2       1       3       1       3
#> 10       3       2       1       2       1       1       1       1       3
#> # ... with 898 more rows
…
# find variables with "dependency" in names and variable labels
library(sjlabelled)
find_var(efc, "dependency")
#> # A tibble: 1 x 3
#>   col.nr var.name var.label         
#>    <int> <chr>    <chr>             
#> 1      5 e42dep   elder's dependency
get_label(efc$e42dep)
#> [1] "elder's dependency"

# find variables with "level" in names and value labels
res <- find_var(efc, "level", search = "name_value", out = "df")
res
#> # A tibble: 908 x 3
#>    c172code n4pstu nur_pst
#>       <dbl>  <dbl>   <dbl>
#>  1        2      0      NA
#>  2        2      0      NA
#>  3        1      2       2
#>  4        2      3       3
#>  5        2      2       2
#>  6        2      2       2
#>  7        2      3       3
#>  8        2      1       1
#>  9       NA      3       3
#> 10        2      3       3
#> # ... with 898 more rows
…
