Recode numeric variables into equal-ranged groups — group_var • sjmisc
…
# within a pipe-chain
library(dplyr)
efc %>%
  select(e17age, c12hour, c160age) %>%
  group_var(size = 20)
#> # A tibble: 908 x 6
#>    e17age c12hour c160age e17age_gr c12hour_gr c160age_gr
#>     <dbl>   <dbl>   <dbl>     <dbl>      <dbl>      <dbl>
#>  1     83      16      56         2          1          3
#>  2     88     148      54         2          8          3
#>  3     82      70      80         2          4          5
#>  4     67     168      69         1          9          4
#>  5     84     168      47         2          9          3
#>  6     85      16      56         2          1          3
#>  7     74     161      61         1          9          4
#>  8     87     110      67         2          6          4
#>  9     79      28      59         1          2          3
#> 10     83      40      49         2          3          3
#> # ... with 898 more rows
…
