Recode variables — rec • sjmisc
…
# use select-helpers from dplyr-package
rec(
  efc, contains("cop"), c161sex:c175empl,
  rec = "0,1=0; else=1",
  append = FALSE
)
#> # A tibble: 908 x 12
#>    c82cop1_r c83cop2_r c84cop3_r c85cop4_r c86cop5_r c87cop6_r c88cop7_r
#>        <dbl>     <dbl>     <dbl>     <dbl>     <dbl>     <dbl>     <dbl>
#>  1         1         1         1         1         0         0         1
#>  2         1         1         1         1         1         0         1
#>  3         1         1         0         1         0         0         0
#>  4         1         0         1         0         0         0         0
#>  5         1         1         0         1         1         1         0
#>  6         1         1         1         1         1         1         1
#>  7         1         1         1         0         0         1         1
#>  8         1         1         1         0         0         0         1
#>  9         1         1         1         1         1         0         1
#> 10         1         1         0         1         0         0         0
#> # ... with 898 more rows, and 5 more variables: c89cop8_r <dbl>,
#> #   c90cop9_r <dbl>, c161sex_r <dbl>, c172code_r <dbl>, c175empl_r <dbl>

# recode only variables that have a value range from 1-4
p <- function(x) min(x, na.rm = TRUE) > 0 && max(x, na.rm = TRUE) < 5
rec_if(efc, predicate = p, rec = "1:3=1;4=2;else=copy")
#> # A tibble: 908 x 40
#>    c12hour e15relat e16sex e17age e42dep c82cop1 c83cop2 c84cop3 c85cop4
#>      <dbl>    <dbl>  <dbl>  <dbl>  <dbl>   <dbl>   <dbl>   <dbl>   <dbl>
#>  1      16        2      2     83      3       3       2       2       2
#>  2     148        2      2     88      3       3       3       3       3
#>  3      70        1      2     82      3       2       2       1       4
#>  4     168        1      2     67      4       4       1       3       1
#>  5     168        2      2     84      4       3       2       1       2
#>  6      16        2      2     85      4       2       2       3       3
#>  7     161        1      1     74      4       4       2       4       1
#>  8     110        4      2     87      4       3       2       2       1
#>  9      28        2      2     79      4       3       2       3       2
#> 10      40        2      2     83      4       3       2       1       2
#> # ... with 898 more rows, and 31 more variables: c86cop5 <dbl>, c87cop6 <dbl>,
#> #   c88cop7 <dbl>, c89cop8 <dbl>, c90cop9 <dbl>, c160age <dbl>, c161sex <dbl>,
#> #   c172code <dbl>, c175empl <dbl>, barthtot <dbl>, neg_c_7 <dbl>,
#> #   pos_v_4 <dbl>, quol_5 <dbl>, resttotn <dbl>, tot_sc_e <dbl>, n4pstu <dbl>,
#> #   nur_pst <dbl>, e16sex_r <dbl>, e42dep_r <dbl>, c82cop1_r <dbl>,
#> #   c83cop2_r <dbl>, c84cop3_r <dbl>, c85cop4_r <dbl>, c86cop5_r <dbl>,
#> #   c87cop6_r <dbl>, c88cop7_r <dbl>, c89cop8_r <dbl>, c90cop9_r <dbl>,
#> #   c161sex_r <dbl>, c172code_r <dbl>, nur_pst_r <dbl>
…
