Recode variable categories into new values — recode_to • sjmisc
…
# lowest value starting with 1
dummy <- sample(11:15, 10, replace = TRUE)
recode_to(dummy, lowest = 1)
#>  [1] 2 3 1 2 2 1 3 5 1 2

# lowest value starting with 1, highest with 3
# all others set to NA
dummy <- sample(11:15, 10, replace = TRUE)
recode_to(dummy, lowest = 1, highest = 3)
#>  [1]  1 NA  1  2  3  3  1  1  3 NA

# recode multiple variables at once
data(efc)
recode_to(efc, c82cop1, c83cop2, c84cop3, append = FALSE)
#> # A tibble: 908 x 3
#>    c82cop1_r0 c83cop2_r0 c84cop3_r0
#>         <dbl>      <dbl>      <dbl>
#>  1          2          1          1
#>  2          2          2          2
#>  3          1          1          0
#>  4          3          0          2
#>  5          2          1          0
#>  6          1          1          2
#>  7          3          1          3
#>  8          2          1          1
#>  9          2          1          2
#> 10          2          1          0
#> # ... with 898 more rows
…
