Row sums and means for data frames — row_sums • sjmisc
…
    Details

    For n, must be a numeric value from 0 to ncol(x). If
         a row in x has at least n non-missing values, the
         row mean is returned. If n is a non-integer value from 0 to 1,
         n is considered to indicate the proportion of necessary non-missing
         values per row. E.g., if n = .75, a row must have at least ncol(x) * n
         non-missing values for the row mean to be calculated. See 'Examples'.

    Examples

data(efc)
efc %>% row_sums(c82cop1:c90cop9, append = FALSE)
#> # A tibble: 908 x 1
#>    rowsums
#>      <dbl>
#>  1      19
#>  2      24
#>  3      19
#>  4      18
#>  5      21
#>  6      19
#>  7      23
#>  8      18
#>  9      20
#> 10      15
#> # ... with 898 more rows

library(dplyr)
row_sums(efc, contains("cop"), append = FALSE)
#> # A tibble: 908 x 1
#>    rowsums
#>      <dbl>
#>  1      19
#>  2      24
#>  3      19
#>  4      18
#>  5      21
#>  6      19
#>  7      23
#>  8      18
#>  9      20
#> 10      15
#> # ... with 898 more rows
…
# create sum-score of COPE-Index, and append to data
efc %>%
  select(c82cop1:c90cop9) %>%
  row_sums()
#> # A tibble: 908 x 10
#>    c82cop1 c83cop2 c84cop3 c85cop4 c86cop5 c87cop6 c88cop7 c89cop8 c90cop9
#>      <dbl>   <dbl>   <dbl>   <dbl>   <dbl>   <dbl>   <dbl>   <dbl>   <dbl>
#>  1       3       2       2       2       1       1       2       3       3
#>  2       3       3       3       3       4       1       3       2       2
#>  3       2       2       1       4       1       1       1       4       3
#>  4       4       1       3       1       1       1       1       2       4
#>  5       3       2       1       2       2       2       1       4       4
#>  6       2       2       3       3       3       2       2       1       1
#>  7       4       2       4       1       1       2       4       1       4
#>  8       3       2       2       1       1       1       2       3       3
#>  9       3       2       3       2       2       1       3       1       3
#> 10       3       2       1       2       1       1       1       1       3
#> # ... with 898 more rows, and 1 more variable: rowsums <dbl>
…
