Split numeric variables into smaller groups — split_var • sjmisc
…
# split into 3 groups
table(split_var(efc$neg_c_7, n = 3))
#> 
#>   1   2   3 
#> 280 301 311 

# split multiple variables into 3 groups
split_var(efc, neg_c_7, pos_v_4, e17age, n = 3, append = FALSE)
#> # A tibble: 908 x 3
#>    neg_c_7_g pos_v_4_g e17age_g
#>    <fct>     <fct>     <fct>   
#>  1 2         2         3       
#>  2 3         1         3       
#>  3 2         2         2       
#>  4 2         3         1       
#>  5 2         3         3       
#>  6 3         1         3       
#>  7 3         2         1       
#>  8 2         3         3       
#>  9 3         2         2       
#> 10 2         2         3       
#> # ... with 898 more rows
…
