Convert variable into character vector and replace values with associated value labels — to_character • sjmisc
…
# easily coerce specific variables in a data frame to character
# and keep other variables, with their class preserved
to_character(efc, e42dep, e16sex, c172code)
#> # A tibble: 908 x 26
#>    c12hour e15relat e16sex e17age e42dep        c82cop1 c83cop2 c84cop3 c85cop4
#>      <dbl>    <dbl> <chr>   <dbl> <chr>           <dbl>   <dbl>   <dbl>   <dbl>
#>  1      16        2 female     83 moderately d~       3       2       2       2
#>  2     148        2 female     88 moderately d~       3       3       3       3
#>  3      70        1 female     82 moderately d~       2       2       1       4
#>  4     168        1 female     67 severely dep~       4       1       3       1
#>  5     168        2 female     84 severely dep~       3       2       1       2
#>  6      16        2 female     85 severely dep~       2       2       3       3
#>  7     161        1 male       74 severely dep~       4       2       4       1
#>  8     110        4 female     87 severely dep~       3       2       2       1
#>  9      28        2 female     79 severely dep~       3       2       3       2
#> 10      40        2 female     83 severely dep~       3       2       1       2
#> # ... with 898 more rows, and 17 more variables: c86cop5 <dbl>, c87cop6 <dbl>,
#> #   c88cop7 <dbl>, c89cop8 <dbl>, c90cop9 <dbl>, c160age <dbl>, c161sex <dbl>,
#> #   c172code <chr>, c175empl <dbl>, barthtot <dbl>, neg_c_7 <dbl>,
#> #   pos_v_4 <dbl>, quol_5 <dbl>, resttotn <dbl>, tot_sc_e <dbl>, n4pstu <dbl>,
#> #   nur_pst <dbl>
…
