Convert factors to numeric variables — to_value • sjmisc
…
# easily coerce specific variables in a data frame to numeric
# and keep other variables, with their class preserved
data(efc)
efc$e42dep <- as.factor(efc$e42dep)
efc$e16sex <- as.factor(efc$e16sex)
efc$e17age <- as.factor(efc$e17age)

# convert back "sex" and "age" into numeric
to_value(efc, e16sex, e17age)
#> # A tibble: 908 x 26
#>    c12hour e15relat e16sex e17age e42dep c82cop1 c83cop2 c84cop3 c85cop4
#>      <dbl>    <dbl>  <dbl>  <dbl> <fct>    <dbl>   <dbl>   <dbl>   <dbl>
#>  1      16        2      2     83 3            3       2       2       2
#>  2     148        2      2     88 3            3       3       3       3
#>  3      70        1      2     82 3            2       2       1       4
#>  4     168        1      2     67 4            4       1       3       1
#>  5     168        2      2     84 4            3       2       1       2
#>  6      16        2      2     85 4            2       2       3       3
#>  7     161        1      1     74 4            4       2       4       1
#>  8     110        4      2     87 4            3       2       2       1
#>  9      28        2      2     79 4            3       2       3       2
#> 10      40        2      2     83 4            3       2       1       2
#> # ... with 898 more rows, and 17 more variables: c86cop5 <dbl>, c87cop6 <dbl>,
#> #   c88cop7 <dbl>, c89cop8 <dbl>, c90cop9 <dbl>, c160age <dbl>, c161sex <dbl>,
#> #   c172code <dbl>, c175empl <dbl>, barthtot <dbl>, neg_c_7 <dbl>,
#> #   pos_v_4 <dbl>, quol_5 <dbl>, resttotn <dbl>, tot_sc_e <dbl>, n4pstu <dbl>,
#> #   nur_pst <dbl>
…
