Convert infiite or NaN values into regular NA — zap_inf • sjmisc
…
# only zap NaN for c12hour and e17age, not for e42dep,
# but return complete data framee
zap_inf(efc, c12hour, e17age)
#> # A tibble: 908 x 26
#>    c12hour e15relat e16sex e17age e42dep c82cop1 c83cop2 c84cop3 c85cop4
#>      <dbl>    <dbl>  <dbl>  <dbl>  <dbl>   <dbl>   <dbl>   <dbl>   <dbl>
#>  1      NA        2      2     NA    NaN       3       2       2       2
#>  2      NA        2      2     NA     NA       3       3       3       3
#>  3      70        1      2     82      3       2       2       1       4
#>  4     168        1      2     67      4       4       1       3       1
#>  5     168        2      2     84      4       3       2       1       2
#>  6      16        2      2     85      4       2       2       3       3
#>  7     161        1      1     74      4       4       2       4       1
#>  8     110        4      2     87      4       3       2       2       1
#>  9      28        2      2     79      4       3       2       3       2
#> 10      40        2      2     83      4       3       2       1       2
#> # ... with 898 more rows, and 17 more variables: c86cop5 <dbl>, c87cop6 <dbl>,
#> #   c88cop7 <dbl>, c89cop8 <dbl>, c90cop9 <dbl>, c160age <dbl>, c161sex <dbl>,
#> #   c172code <dbl>, c175empl <dbl>, barthtot <dbl>, neg_c_7 <dbl>,
#> #   pos_v_4 <dbl>, quol_5 <dbl>, resttotn <dbl>, tot_sc_e <dbl>, n4pstu <dbl>,
#> #   nur_pst <dbl>

# zap NaN for complete data frame
zap_inf(efc)
#> # A tibble: 908 x 26
#>    c12hour e15relat e16sex e17age e42dep c82cop1 c83cop2 c84cop3 c85cop4
#>      <dbl>    <dbl>  <dbl>  <dbl>  <dbl>   <dbl>   <dbl>   <dbl>   <dbl>
#>  1      NA        2      2     NA     NA       3       2       2       2
#>  2      NA        2      2     NA     NA       3       3       3       3
#>  3      70        1      2     82      3       2       2       1       4
#>  4     168        1      2     67      4       4       1       3       1
#>  5     168        2      2     84      4       3       2       1       2
#>  6      16        2      2     85      4       2       2       3       3
#>  7     161        1      1     74      4       4       2       4       1
#>  8     110        4      2     87      4       3       2       2       1
#>  9      28        2      2     79      4       3       2       3       2
#> 10      40        2      2     83      4       3       2       1       2
#> # ... with 898 more rows, and 17 more variables: c86cop5 <dbl>, c87cop6 <dbl>,
#> #   c88cop7 <dbl>, c89cop8 <dbl>, c90cop9 <dbl>, c160age <dbl>, c161sex <dbl>,
#> #   c172code <dbl>, c175empl <dbl>, barthtot <dbl>, neg_c_7 <dbl>,
#> #   pos_v_4 <dbl>, quol_5 <dbl>, resttotn <dbl>, tot_sc_e <dbl>, n4pstu <dbl>,
#> #   nur_pst <dbl>
…
